[
  {
    "id": "1",
    "tipo": "acoes",
    "ativo": "0",
    "url": "../imagens/badges/5w2h-feedback-prazo.png",
    "name": "Entregar Feedback de Atividade Antes do Prazo",
    "descricao": "Conquista para os usuários eficientes com as ações recebidas! O quão rápido você consegue cumprir suas tarefas?",
    "requisito": "Realizar o feedback de uma atividade do plano de ação antes de seu prazo final.",
    "progresso": "0/1"
  },
  {
    "id": "2",
    "tipo": "acoes",
    "ativo": "0",
    "url": "../imagens/badges/5w2h-feedback.png",
    "name": "Feedback de Ação de Atividade do Plano de Ação",
    "descricao": "Ação dada é ação cumprida! Mão na massa, ajude seu time a inovar cada vez mais!",
    "requisito": "Entregar o feedback de uma atividade do plano de ação.",
    "progresso": "0/1"
  },
  {
    "id": "3",
    "tipo": "acoes",
    "ativo": "0",
    "url": "../imagens/badges/5w2h-tarefa-recebe.png",
    "name": "Receber Atividade do Plano de Ação",
    "descricao": "Você foi escolhido para uma missão importante. Talvez a mais importante da sua vida! Vamos soldado, ajude o pelotão a inovar!",
    "requisito": "Receber uma atividade do plano de ação de alguma história.",
    "progresso": "0/1"
  },
  {
    "id": "4",
    "tipo": "acoes",
    "ativo": "0",
    "url": "../imagens/badges/5w2h.png",
    "name": "Criar Atividade do Plano de Ação",
    "descricao": "Você é realmente um lider nato! Mostre que sabe organizar um projeto e ajude seu time em práticas inovadoras!",
    "requisito": "Realizar a criação de atividade do plano de ação de alguma história da sua empresa.",
    "progresso": "0/1"
  },
  {
    "id": "5",
    "tipo": "acoes",
    "ativo": "0",
    "url": "../imagens/badges/add-amigo.png",
    "name": "Adicionando Amigos",
    "descricao": "Amigo é coisa pra se guardar [...] e juntos aprender a inovar! Pratique a socialização a caminho da inovação!",
    "requisito": "Adicionar um amigo no Portal da Inovação",
    "progresso": "0/1"
  },
  {
    "id": "6",
    "tipo": "acoes",
    "ativo": "0",
    "url": "../imagens/badges/brain-acao.png",
    "name": "Ideias Virando Ações",
    "descricao": "Como diria Victor Hugo: Nada é mais poderoso que uma ideia que chegou no tempo certo! Sua ideia virou uma ação e você merece um reconhecimento por isso!",
    "requisito": "Ter uma ideia que originou uma atividade em um plano de ação",
    "progresso": "0/1"
  },
  {
    "id": "7",
    "tipo": "acoes",
    "ativo": "0",
    "url": "../imagens/badges/brain-comenta.png",
    "name": "Comentários no Brainstorming",
    "descricao": "Vemos você como um inovador de opiniões fortes! Você deve trabalhar com o seu time e comentar as suas ideias. É conversando que a gente se entende!",
    "requisito": "Criar um comentário em uma ideia do brainstorming de uma história",
    "progresso": "0/1"
  },
  {
    "id": "8",
    "tipo": "acoes",
    "ativo": "0",
    "url": "../imagens/badges/brain-cria-1.png",
    "name": "Participar do Brainstorming",
    "descricao": "Todos querem ouvir suas ideias e este é um ótimo passo para isso. Vamos lá: boca no trombone e ideias ao ar!",
    "requisito": "Criar uma ideia dentro do brainstorming de uma história.",
    "progresso": "0/1"
  },
  {
    "id": "9",
    "tipo": "acoes",
    "ativo": "0",
    "url": "../imagens/badges/brain-cria-5.png",
    "name": "Participar do Brainstorming (5x)",
    "descricao": "Ideias são sementes, plante e cultive as suas! Você está pegando o jeito da coisa!",
    "requisito": "Criar 05 ideias dentro de brainstormings das histórias",
    "progresso": "0/5"
  },
  {
    "id": "10",
    "tipo": "acoes",
    "ativo": "0",
    "url": "../imagens/badges/brain-cria-10.png",
    "name": "Participar do Brainstorming (10x)",
    "descricao": "Thomas Edison dizia: Se quiser ter uma boa ideia, tenha uma porção de ideias. Você está no caminho certo, já são 10 ideias! ",
    "requisito": "Criar 10 ideias dentro de brainstormings das histórias.",
    "progresso": "0/10"
  },

  {
    "id": "11",
    "tipo": "acoes",
    "ativo": "0",
    "url": "../imagens/badges/brain-cria-20.png",
    "name": "Participar do Brainstorming (20x)",
    "descricao": "Vemos em você um grande inovador! Já são 20 ideias! O orgulho toma conta de nossos corações com essa conquista!",
    "requisito": "Criar 20 ideias dentro de brainstormings das histórias.",
    "progresso": "0/20"
  },
  {
    "id": "12",
    "tipo": "acoes",
    "ativo": "0",
    "url": "../imagens/badges/brain-cria-30.png",
    "name": "Participar do Brainstorming (30x)",
    "descricao": "Triste não é mudar de ideia. Triste é não ter ideias para mudar - Francis Bacon. Ele sabe o que diz, e você sabe o que faz! São 30 ideias registradas!",
    "requisito": "Criar 30 ideias dentro de brainstormings das histórias.",
    "progresso": "0/30"
  },
  {
    "id": "13",
    "tipo": "acoes",
    "ativo": "0",
    "url": "../imagens/badges/brain-cria-50.png",
    "name": "Participar do Brainstorming (50x)",
    "descricao": "Vejo em nossos registros que você possui 50 ideias cadastradas! Sangue inovador corre em suas veias!",
    "requisito": "Criar 50 ideias dentro de brainstormings das histórias.",
    "progresso": "0/50"
  },
  {
    "id": "14",
    "tipo": "acoese",
    "ativo": "0",
    "url": "../imagens/badges/brain-cria-100.png",
    "name": "Participar do Brainstorming (100x)",
    "descricao": "Ideias e somente ideias podem iluminar a escuridão - Ludwig Von Mises. Faltam-nos palavras para lhe parabenizar pela sua ideia número 100! Isso é realmente incrível! ",
    "requisito": "Criar 100 ideias dentro de brainstormings das histórias.",
    "progresso": "0/100"
  },
  {
    "id": "15",
    "tipo": "acoes",
    "ativo": "0",
    "url": "../imagens/badges/brain-curtido-1.png",
    "name": "Tenha suas Ideias Curtidas",
    "descricao": "Você precisa de pessoas para que possa colocar suas ideias em prática com mais força! Alguém curtiu uma ideia sua, e isso é bom!",
    "requisito": "Ter uma ideia curtida nos brainstormings das histórias",
    "progresso": "0/1"
  },
  {
    "id": "16",
    "tipo": "acoes",
    "ativo": "0",
    "url": "../imagens/badges/brain-curtido-3.png",
    "name": "Tenha suas Ideias Curtidas (3x)",
    "descricao": "As pessoas começam a dar importância para as suas ideias quando elas agregam valor! Já são 3 ideias curtidas!",
    "requisito": "Ter 03 ideias curtidas nos brainstormings das histórias",
    "progresso": "0/3"
  },
  {
    "id": "17",
    "tipo": "acoes",
    "ativo": "0",
    "url": "../imagens/badges/brain-curtido-5.png",
    "name": "Tenha suas Ideias Curtidas (5x)",
    "descricao": "Meus Parabéns!!! As suas ideias realmente são boas, continue assim.",
    "requisito": "Ter 05 ideias curtidas nos brainstormings das histórias",
    "progresso": "0/5"
  },
  {
    "id": "18",
    "tipo": "acoes",
    "ativo": "0",
    "url": "../imagens/badges/brain-curtir.png",
    "name": "Curtir Ideias",
    "descricao": "As pessoas com boas ideias sentem-se motivadas quando sabem que não estão sozinhas! Você curtiu uma ideia e apoiou um amigo em uma boa ideia!",
    "requisito": "Curtir uma ideia nos brainstormings das histórias",
    "progresso": "0/1"
  },
  {
    "id": "19",
    "tipo": "acoes",
    "ativo": "0",
    "url": "../imagens/badges/brain-grupo-cria.png",
    "name": "Criar Grupo de Brainstorming",
    "descricao": "Ter ideias é ótimo, e organização chama a ação! Você criou um grupo para as ideias do brainstorming, e merece um reconhecimento por isso!",
    "requisito": "Criar um grupo de ideias para um Brainstorming das Histórias",
    "progresso": "0/1"
  },
  {
    "id": "20",
    "tipo": "datas",
    "ativo": "0",
    "url": "../imagens/badges/dia-abraco.png",
    "name": "Dia do Abraço - 22/05",
    "descricao": "Dizem que o abraço é a melhor invenção do mundo! Crie uma história neste dia para promover esse ato bonito e abrace seus amigos!",
    "requisito": "Criar uma história no dia do abraço",
    "progresso": "0/1"
  },
  {
    "id": "21",
    "tipo": "datas",
    "ativo": "0",
    "url": "../imagens/badges/dia-agua.png",
    "name": "Dia da Água - 22/03",
    "descricao": "Devemos ter um pingo de responsabilidade com um bem tão precioso! Como você pode ajudar a cuidar da água na sua empresa?",
    "requisito": "Criar uma história no dia da água",
    "progresso": "0/1"
  },
  {
    "id": "22",
    "tipo": "datas",
    "ativo": "0",
    "url": "../imagens/badges/dia-alfabetizacao.png",
    "name": "Dia da Alfabetização - 14/11",
    "descricao": "A alfabetização de todos é o ponto de partida para um futuro repleto de conquistas! Dê a sua ideia neste dia tão importante!",
    "requisito": "Criar uma história no dia da alfabetização",
    "progresso": "0/1"
  },
  {
    "id": "23",
    "tipo": "datas",
    "ativo": "0",
    "url": "../imagens/badges/dia-ambiente.png",
    "name": "Dia do Meio Ambiente - 05/06",
    "descricao": "Quer uma boa ideia? Preservar aquilo que precisamos para o futuro! Mostre ideias para ajudar o meio ambiente, já que fazemos parte dele!",
    "requisito": "Criar uma história no dia do meio ambiente",
    "progresso": "0/1"
  },
  {
    "id": "24",
    "tipo": "datas",
    "ativo": "0",
    "url": "../imagens/badges/dia-amigo.png",
    "name": "Dia do Amigo - 20/07",
    "descricao": "Fazer um amigo é um dom. Ter um amigo é uma graça. Conservar um amigo é uma virtude. Agora, você ser um amigo é uma honra! Nesse dia, o que você pode compartilhar com seus amigos?",
    "requisito": "Criar uma história no dia do amigo",
    "progresso": "0/1"
  },
  {
    "id": "25",
    "tipo": "datas",
    "ativo": "0",
    "url": "../imagens/badges/dia-animais.png",
    "name": "Dia dos Animais - 04/10",
    "descricao": "Independente de espécie, os animais podem ser nossos mais leais amigos! Eles merecem uma história só para eles!",
    "requisito": "Criar uma história no dia dos animais",
    "progresso": "0/1"
  },
  {
    "id": "26",
    "tipo": "datas",
    "ativo": "0",
    "url": "../imagens/badges/dia-aperto-mao.png",
    "name": "Dia do Aperto de Mão - 21/06",
    "descricao": "Um aperto de mão pode mudar o dia, vamos nos aproximar mais! Se você é uma pessoa amiga, merece esse título!",
    "requisito": "Criar uma história no dia do aperto de mão",
    "progresso": "0/1"
  },
  {
    "id": "27",
    "tipo": "datas",
    "ativo": "0",
    "url": "../imagens/badges/dia-cafe.png",
    "name": "Dia do Café - 14/04",
    "descricao": "Um bom café cheira como o aroma dos campos no paraíso! O café merece uma história só para ele!",
    "requisito": "Criar uma história no dia do café",
    "progresso": "0/1"
  },
  {
    "id": "28",
    "tipo": "datas",
    "ativo": "0",
    "url": "../imagens/badges/dia-con-negra.png",
    "name": "Dia da Consciência Negra - 20/11",
    "descricao": "Neste dia especial lembramos de todas as injustiças sofridas pelos nossos irmãos afrodescendentes e temos a oportunidade de usar o aprendizado para evitar que voltem a acontecer no futuro. Por isso, crie uma história que contribua para jamais nos esquecermos de que somos todos iguais!",
    "requisito": "Criar uma história no dia da consciência negra",
    "progresso": "0/1"
  },
  {
    "id": "29",
    "tipo": "datas",
    "ativo": "0",
    "url": "../imagens/badges/dia-crianca.png",
    "name": "Dia das Crianças - 12/10",
    "descricao": "Somos eternas crianças em nosso interior! Vamos comemorar isso!",
    "requisito": "Criar uma história para o dia das crianças",
    "progresso": "0/1"
  },
  {
    "id": "30",
    "tipo": "datas",
    "ativo": "0",
    "url": "../imagens/badges/dia-criatividade.png",
    "name": "Dia da Criatividade - 17/11",
    "descricao": "A Criatividade é fundamental para que boas mudanças aconteçam, então aproveite este dia especial para colocar sua criatividade em prática e sugerir histórias inovadoras para sua empresa",
    "requisito": "Criar uma história no dia da criatividade",
    "progresso": "0/1"
  },
  {
    "id": "31",
    "tipo": "datas",
    "ativo": "0",
    "url": "../imagens/badges/dia-doa-sangue.png",
    "name": "Dia do Doador de Sangue - 25/11",
    "descricao": "A doação de sangue é um gesto nobre, então vamos celebrar este dia sugerindo histórias que incentivem este ato de doação de amor e esperança!",
    "requisito": "Criar uma história no dia do doador de sangue",
    "progresso": "0/1"
  },
  {
    "id": "32",
    "tipo": "datas",
    "ativo": "0",
    "url": "../imagens/badges/dia-educacao.png",
    "name": "Dia da Educação - 28/04",
    "descricao": "Como disse Paulo Freire: Educação não transforma o mundo. Educação muda pessoas, e estas transformam o mundo. Então aproveite este dia para pensar em histórias transformadoras para sua empresa e para o mundo em que vivemos.",
    "requisito": "Criar uma história no dia da educação",
    "progresso": "0/1"
  },
  {
    "id": "33",
    "tipo": "datas",
    "ativo": "0",
    "url": "../imagens/badges/dia-familia.png",
    "name": "Dia da Família - 15/05",
    "descricao":"A família é o alicerce da sociedade, é nela que são plantadas as bases mais importantes para a garantia de um futuro melhor, então sugira histórias que incentivem as pessoas a valorizarem as famílias e o meio em que estão inseridas.",
    "requisito": "Criar uma história no dia da família",
    "progresso": "0/1"
  },
  {
    "id": "34",
    "tipo": "datas",
    "ativo": "0",
    "url": "../imagens/badges/dia-geek.png",
    "name": "Dia do Orgulho Geek - 25/05",
    "descricao": "Que a força esteja com você! E a inovação também! A cultura geek merece o seu dia.",
    "requisito": "Criar uma história no dia do orgulho geek",
    "progresso": "0/1"
  },
  {
    "id": "35",
    "tipo": "datas",
    "ativo": "0",
    "url": "../imagens/badges/dia-homem.png",
    "name": "Dia do Homem - 15/07",
    "descricao": "Os homens também merecem um dia dedicado a eles, pois são pais, amigos, profissionais e tantos outros que fazem a diferença em nossas vidas, portanto use este dia para sugerir histórias que homenageiem os homens que marcaram sua história.",
    "requisito": "Criar uma história no dia do homem",
    "progresso": "0/1"
  },
  {
    "id": "36",
    "tipo": "datas",
    "ativo": "0",
    "url": "../imagens/badges/dia-idoso.png",
    "name": "Dia do Idoso - 01/10",
    "descricao": "Cuidar do idoso é respeitar o nosso futuro e valorizar o nosso passado!",
    "requisito": "Criar uma história no dia do idoso",
    "progresso": "0/1"
  },
  {
    "id": "37",
    "tipo": "datas",
    "ativo": "0",
    "url": "../imagens/badges/dia-imunizacao.png",
    "name": "Dia da Imunização - 09/06",
    "descricao": "Com saúde a felicidade é completa! A imunização merece uma história!",
    "requisito": "Criar uma história para o dia da imunização",
    "progresso": "0/1"
  },
  {
    "id": "38",
    "tipo": "datas",
    "ativo": "0",
    "url": "../imagens/badges/dia-indio.png",
    "name": "Dia do Índio - 19/04",
    "descricao": "Os verdadeiros nativos de nossa terra merecem um reconhecimento e respeito por todo o conhecimento e a história!",
    "requisito": "Criar uma história no dia do índio",
    "progresso": "0/1"
  },
  {
    "id": "39",
    "tipo": "datas",
    "ativo": "0",
    "url": "../imagens/badges/dia-inovacao.png",
    "name": "Dia da Inovação - 19/10",
    "descricao": "Inovar é muito mais que criar novos processos e serviços, é REINVENTAR!",
    "requisito": "Criar uma história no dia da inovação",
    "progresso": "0/1"
  },
  {
    "id": "40",
    "tipo": "datas",
    "ativo": "0",
    "url": "../imagens/badges/dia-livro.png",
    "name": "Dia do Livro - 18/04",
    "descricao": "Um ditado popular da Índia: Um livro aberto é um cérebro que fala; fechado, é um amigo que espera; esquecido, uma alma que perdoa; destruído, um coração que chora",
    "requisito": "Criar uma história no dia do livro",
    "progresso": "0/1"
  },
  {
    "id": "41",
    "tipo": "datas",
    "ativo": "0",
    "url": "../imagens/badges/dia-mulher.png",
    "name": "Dia da Mulher - 08/03",
    "descricao": "A mulher é o símbolo da vida! E com sua força, delicadeza e sabedoria ajuda a transformar a vida em algo realmente encantador! ",
    "requisito": "Criar uma história no dia da mulher",
    "progresso": "0/1"
  },
  {
    "id": "42",
    "tipo": "datas",
    "ativo": "0",
    "url": "../imagens/badges/dia-musica.png",
    "name": "Dia da Música - 01/10",
    "descricao": "A música é o alimento e a cura da alma! Um pouco de música sempre fez bem a todos!",
    "requisito": "Criar uma história no dia da música",
    "progresso": "0/1"
  },
  {
    "id": "43",
    "tipo": "datas",
    "ativo": "0",
    "url": "../imagens/badges/dia-nov-azul.png",
    "name": "Novembro Azul",
    "descricao": "A uma causa tão séria, nossa atenção especial! O assunto não pode ser um tabu, vamos discutir as ideias!",
    "requisito": "Criar uma história relacionada com o tema Novembro Azul",
    "progresso": "0/1"
  },
  {
    "id": "44",
    "tipo": "datas",
    "ativo": "0",
    "url": "../imagens/badges/dia-out-rosa.png",
    "name": "Outubro Rosa",
    "descricao": "O assunto é sério e merece atenção! Cuidado é para todos os gêneros!",
    "requisito": "Criar uma história relacionada com o tema Outubro Rosa",
    "progresso": "0/1"
  },
  {
    "id": "45",
    "tipo": "datas",
    "ativo": "0",
    "url": "../imagens/badges/dia-pizza.png",
    "name": "Dia da Pizza - 10/07",
    "descricao": "Quentinha e saborosa! De variados sabores e formatos! Salvemos a pizza, ela merece uma história só para ela!",
    "requisito": "Criar uma história no dia da pizza",
    "progresso": "0/1"
  },
  {
    "id": "46",
    "tipo": "datas",
    "ativo": "0",
    "url": "../imagens/badges/dia-erradica-pobreza.png",
    "name": "Dia da Erradicação da Pobreza - 17/10",
    "descricao": "Não podemos escolher onde nascemos, mas podemos escolher ser solidários! Neste dia, pensemos em todos os irmãos que precisam de auxílio!",
    "requisito": "Criar uma história no dia da erradicação da pobreza",
    "progresso": "0/1"
  },
  {
    "id": "47",
    "tipo": "datas",
    "ativo": "0",
    "url": "../imagens/badges/dia-professor.png",
    "name": "Dia do Professor - 15/10",
    "descricao": "No dia dos mestres, o nosso mais profundo carinho, admiração e gratidão! Reconhecemos a vossa importância querido professor, essa data é sua!",
    "requisito": "Criar uma história no dia do professor",
    "progresso": "0/1"
  },
  {
    "id": "48",
    "tipo": "datas",
    "ativo": "0",
    "url": "../imagens/badges/dia-saude.png",
    "name": "Dia da Saúde - 07/04",
    "descricao": "A gente quer é ter muita saúde. A gente quer viver a liberdade. A gente quer viver felicidade... - Gonzaguinha",
    "requisito": "Criar uma história no dia da saúde",
    "progresso": "0/1"
  },
  {
    "id": "49",
    "tipo": "datas",
    "ativo": "0",
    "url": "../imagens/badges/dia-sem-carro.png",
    "name": "Dia Sem Carro - 27/09",
    "descricao": "É dia de deixar o carro em casa! Que tal uma bicicleta hoje para variar um pouco? É saudável e ecológico!",
    "requisito": "Criar uma história no Dia Mundial Sem Carro",
    "progresso": "0/1"
  },
  {
    "id": "50",
    "tipo": "datas",
    "ativo": "0",
    "url": "../imagens/badges/dia-tabaco.png",
    "name": "Dia Sem Tabaco - 31 05",
    "descricao": "O cigarro causa vários problemas à saúde das pessoas e ao planeta, então aproveite esta data para sugerir ideias que contribuam para que as pessoas compreendam essa questão e o vício no cigarro diminua ainda mais",
    "requisito": "Criar uma história no Dia Mundial Sem Tabaco",
    "progresso": "0/1"
  },
  {
    "id": "51",
    "tipo": "datas",
    "ativo": "0",
    "url": "../imagens/badges/dia-trabalhador.png",
    "name": "Dia do Trabalhador - 01/05",
    "descricao": "Quem não cultiva o hábito do trabalho contrai o vicio da preguiça!!! Salve salve os trabalhadores!",
    "requisito": "Criar uma história no Dia do Trabalhador",
    "progresso": "0/1"
  },
  {
    "id": "52",
    "tipo": "acoes",
    "ativo": "0",
    "url": "../imagens/badges/empresa-cad.png",
    "name": "Cadastro da Empresa",
    "descricao": "Um pequeno passo para um homem, e um passo gigante para a empresa! Parabéns pelo cadastro e mãos a obra!",
    "requisito": "Cadastrar uma empresa no Portal da Inovação",
    "progresso": "0/1"
  },
  {
    "id": "53",
    "tipo": "acoes",
    "ativo": "0",
    "url": "../imagens/badges/empresa-convite-recebe.png",
    "name": "Receber Convite Para Participar de Empresa",
    "descricao": "Você tem potencial e alguém notou isso! Você foi convidado para participar de uma empresa no Portal da Inovação! Que honra incrível!",
    "requisito": "Receber convite para participar de uma empresa no Portal da Inovação",
    "progresso": "0/1"
  },
  {
    "id": "54",
    "tipo": "acoes",
    "ativo": "0",
    "url": "../imagens/badges/empresa-pedir-convite.png",
    "name": "Solicitar Convite para Participar de Empresa",
    "descricao": "A sua vontade de inovar nos impressiona! Parabéns pela iniciativa e proatividade, essa empresa tem sorte de receber você para os trabalhos!",
    "requisito": "Solicitar convite para participar de uma empresa no Portal da Inovação",
    "progresso": "0/0"
  },
  {
    "id": "55",
    "tipo": "acoes",
    "ativo": "0",
    "url": "../imagens/badges/empresa-cria-grupo.png",
    "name": "Criar Grupo de Empresa",
    "descricao": "A união traz a inovação! Você criou um grupo da empresa, e seus companheiros sentem-se mais conectados agora!",
    "requisito": "Criar um grupo de pessoas da empresa.",
    "progresso": "0/1"
  },
  {
    "id": "56",
    "tipo": "acoes",
    "ativo": "0",
    "url": "../imagens/badges/empresa-missao.png",
    "name": "Missão da Empresa",
    "descricao": "Você é uma pessoa com propósitos. E sua empresa não poderia ser diferente. A missão está criada e agora você tem o seu norte para trabalhar!",
    "requisito": "Criar a missão da empresa",
    "progresso": "0/1"
  },
  {
    "id": "57",
    "tipo": "acoes",
    "ativo": "0",
    "url": "../imagens/badges/empresa-convite.png",
    "name": "Convidar Pessoas para a Empresa",
    "descricao": "Seu instinto de liderança está a flor da pele! Continue formando equipes e juntos dominem o mundo da inovação!",
    "requisito": "Convidar pessoas para participar da empresa.",
    "progresso": "0/1"
  },
  {
    "id": "58",
    "tipo": "acoes",
    "ativo": "0",
    "url": "../imagens/badges/empresa-visao.png",
    "name": "Visão da Empresa",
    "descricao": "Uma pessoa visionária sempre sabe onde quer chegar! Parabéns pela sua visão!",
    "requisito": "Criar a visão da empresa.",
    "progresso": "0/1"
  },
  {
    "id": "59",
    "tipo": "acoes",
    "ativo": "0",
    "url": "../imagens/badges/envia-contato.png",
    "name": "Enviar Contato para o Portal da Inovação",
    "descricao": "Nós queremos ouvir você. Sabemos que boas ideias podem sair de diálogos agradáveis e construtivos! Mande uma mensagem para nós, ficaremos muito felizes de conversar com você!",
    "requisito": "Enviar contato ao Portal da Inovação",
    "progresso": "0/1"
  },
  {
    "id": "60",
    "tipo": "acoes",
    "ativo": "0",
    "url": "../imagens/badges/historia-cad.png",
    "name": "Cadastrar uma História",
    "descricao": "Você se mostra ser uma pessoa com visão, sabe reconhecer as oportunidades de inovar! O mundo precisa de mais pessoas como você!",
    "requisito": "Realizar o cadastro de uma história",
    "progresso": "0/1"
  },
  {
    "id": "61",
    "tipo": "acoes",
    "ativo": "0",
    "url": "../imagens/badges/historia-canvas.png",
    "name": "Cadastrar o Canvas de uma História",
    "descricao": "Você demonstra grande interesse em gerenciar projetos! O canvas é uma ótima ferramenta para isso! Continue explorando!",
    "requisito": "Cadastrar um Canvas Completo",
    "progresso": "0/1"
  },
  {
    "id": "62",
    "tipo": "acoes",
    "ativo": "0",
    "url": "../imagens/badges/historia-convite.png",
    "name": "Convidar Pessoas para a História",
    "descricao": "A inovação é melhor quando se torna um processo coletivo. Continue compartilhando as oportunidades de inovação com seus companheiros! Isso é inspirador!",
    "requisito": "Convidar uma pessoa para participar de uma história",
    "progresso": "0/1"
  },
  {
    "id": "63",
    "tipo": "acoes",
    "ativo": "0",
    "url": "../imagens/badges/historia-prototipos.png",
    "name": "Protótipos da História",
    "descricao": "Em muitos casos é bom termos um modelo inicial de nossas ideias, para avaliar sua efetividade! Criar protótipos é muito divertido!",
    "requisito": "Registrar os planos de prototipagem de uma história",
    "progresso": "0/1"
  },
  {
    "id": "64",
    "tipo": "acoes",
    "ativo": "0",
    "url": "../imagens/badges/historia-testes.png",
    "name": "Testes da História",
    "descricao": "As ideias foram desenvolvidas? Vamos para a prática? Que tal os testar antes para avaliar? Registre os seus testes e tenha segurança dos resultados",
    "requisito": "Registrar o plano de testes de uma história.",
    "progresso": "0/1"
  },
  {
    "id": "65",
    "tipo": "acoes",
    "ativo": "0",
    "url": "../imagens/badges/historia-validacoes.png",
    "name": "Validações da História",
    "descricao": "O processo de inovação é importante, divertido e eficiente! Mas deve ser validado, e todo cuidado é pouco!",
    "requisito": "Registrar os planos de validação de uma história",
    "progresso": "0/1"
  },
  {
    "id": "66",
    "tipo": "acoes",
    "ativo": "0",
    "url": "../imagens/badges/pdi-compromisso.png",
    "name": "PDI - Compromisso",
    "descricao": "Qual o compromisso da equipe de Pesquisa, Desenvolvimento e Inovação? O que a equipe pretende fazer?",
    "requisito": "Registrar o compromisso da equipe de PD&I",
    "progresso": "0/1"
  },
  {
    "id": "67",
    "tipo": "acoes",
    "ativo": "0",
    "url": "../imagens/badges/pdi-missao.png",
    "name": "PDi - Missão",
    "descricao": "A equipe de PDI é muito importante no processo inovador! São pessoas focadas nisso, e agora elas tem o seu norte de trabalho!",
    "requisito": "Registar a missão da equipe de PD&I",
    "progresso": "0/1"
  },
  {
    "id": "68",
    "tipo": "acoes",
    "ativo": "0",
    "url": "../imagens/badges/pdi-necessidade.png",
    "name": "PDi - Necessidade",
    "descricao": "Sabemos que a necessidade da equipe de Pesquisa, Desenvolvimento e Inovação é importante. Aqui nós registramos essa importância para a posteridade",
    "requisito": "Registrar o documento de necessidade da equipe de PD&I",
    "progresso": "0/1"
  },
  {
    "id": "69",
    "tipo": "acoes",
    "ativo": "0",
    "url": "../imagens/badges/pdi-planejamento.png",
    "name": "PDI - Planejamento",
    "descricao": "A equipe de Pesquisa, Desenvolvimento e Inovação deve ter um planejamento levado a sério! E aqui está registrado!",
    "requisito": "Registrar o documento de planejamento da equipe de PD&I",
    "progresso": "0/1"
  },
  {
    "id": "70",
    "tipo": "acoes",
    "ativo": "0",
    "url": "../imagens/badges/pdi-politica.png",
    "name": "PDI - Política",
    "descricao": "A equipe de PDI deve ser muito bem organizada. Este documento ajudará a equipe!",
    "requisito": "Registrar o documento de política da equipe de PD&I",
    "progresso": "0/1"
  },
  {
    "id": "71",
    "tipo": "acoes",
    "ativo": "0",
    "url": "../imagens/badges/pdi-visao.png",
    "name": "PDI - Visão",
    "descricao": "Uma equipe com tanta importância na empresa, sabe onde quer chegar e como fará isso! A visão está registrada aqui!",
    "requisito": "Registrar o documento com a visão da equipe de PD&I",
    "progresso": "0/1"
  },
  {
    "id": "72",
    "tipo": "acoes",
    "ativo": "0",
    "url": "../imagens/badges/treina-1.png",
    "name": "Quanto Vale uma ideia",
    "descricao": "Esta é uma conquista referente ao treinamento número 1 disponível no Portal da Inovação: Quanto Vale uma Ideia. Nele você começará a ter contato com o mundo da inovação e entenderá os conceitos de ideia, invenção e inovação, suas características, diferenças e importância de cada um quando se pretende inovar",
    "requisito": "Assistir o treinamento número 1 disponível no Portal da Inovação: Quanto Vale uma Ideia",
    "progresso": "0/1"
  },
  {
    "id": "73",
    "tipo": "acoes",
    "ativo": "0",
    "url": "../imagens/badges/treina-2.png",
    "name": "Tipos e Graus de Inovação",
    "descricao": "Esta é uma conquista referente ao treinamento número 2 disponível no Portal da Inovação: Tipos e Graus de Inovação: Ao tratar sobre inovação é importante saber que ela se divide em Tipos e Graus, e é esse o assunto do módulo II, onde você conhecerá cada um deles e saberá diferenciá-los, seguindo as orientações do Manual de Oslo. Você também conhecerá exemplos e características de cada tipo e saberá diferenciar inovações radicais de inovações incrementais, estando assim, capacitado a identificar as inovações que são necessárias para sua empresa.",
    "requisito": "Assistir o treinamento número 2 disponível no Portal da Inovação: Tipos e Graus de Inovação",
    "progresso": "0/1"
  },
  {
    "id": "0",
    "tipo": "acoes",
    "ativo": "0",
    "url": "../imagens/badges/treina-3.png",
    "name": "A Inovação Começa nas Pessoas",
    "descricao": "Esta é uma conquista referente ao treinamento número 3 disponível no Portal da Inovação: A Inovação Começa nas Pessoas. Nele tratamos sobre como começar a inovar, a importância de oferecer um ambiente que possibilite a geração de boas ideias e, também, as técnicas que podem ser utilizadas para isso.",
    "requisito": "Assistir o treinamento número 3 disponível no Portal da Inovação: A Inovação Começa nas Pessoas",
    "progresso": "0/1"
  }
]
